…
If, for example, we wanted to move forward with only a few of the variables in
our tibble we use the `select()` function. This will keep only the
variables you select.


~~~
dateWordState <- select(twitterData, date, word, stateCode)
print(dateWordState)
~~~
{: .language-r}



~~~
# A tibble: 94,940 x 3
   date       word   stateCode
   <date>     <chr>  <chr>    
 1 2013-10-07 anime  AL       
 2 2013-10-07 bae    AL       
 3 2013-10-07 boi    AL       
 4 2013-10-07 bruhhh AL       
 5 2013-10-07 fleek  AL       
 6 2013-10-07 anime  AR       
 7 2013-10-07 bae    AR       
 8 2013-10-07 boi    AR       
 9 2013-10-07 bruhhh AR       
10 2013-10-07 fleek  AR       
# ... with 94,930 more rows
…
## Using `filter()`

The `filter()` function is used to select rows of data.  For example, to select only data relating to the north east states:


~~~
twitterDataNE <- filter(twitterData, Region == "Northeast")
print(twitterDataNE)
~~~
{: .language-r}



~~~
# A tibble: 16,160 x 8
   date       stateCode word   cases dataDay Region  totalTokens State    
   <date>     <chr>     <chr>  <int>   <int> <chr>         <dbl> <chr>    
 1 2013-10-07 CT        anime      1       1 Northe…      149773 Connecti…
 2 2013-10-07 CT        bae       22       1 Northe…      149773 Connecti…
 3 2013-10-07 CT        boi        4       1 Northe…      149773 Connecti…
 4 2013-10-07 CT        bruhhh     2       1 Northe…      149773 Connecti…
 5 2013-10-07 CT        fleek      0       1 Northe…      149773 Connecti…
 6 2013-10-07 MA        anime      0       1 Northe…       61205 Massachu…
 7 2013-10-07 MA        bae        5       1 Northe…       61205 Massachu…
 8 2013-10-07 MA        boi        2       1 Northe…       61205 Massachu…
 9 2013-10-07 MA        bruhhh     0       1 Northe…       61205 Massachu…
10 2013-10-07 MA        fleek      0       1 Northe…       61205 Massachu…
# ... with 16,150 more rows
…
Only rows of the data where the condition (i.e. `Region == "Northeast"`) is `TRUE` are kept.  Note that we use `==` to test for equality.

We can use numeric tests in the `filter()` function too.  For example, to only keep rows where at a word was tweeted at least once:


~~~
twitterData %>% 
  filter(cases >= 1)
~~~
{: .language-r}



~~~
# A tibble: 55,188 x 8
   date       stateCode word   cases dataDay Region totalTokens State     
   <date>     <chr>     <chr>  <int>   <int> <chr>        <dbl> <chr>     
 1 2013-10-07 AL        bae       32       1 South       184649 Alabama   
 2 2013-10-07 AL        boi        9       1 South       184649 Alabama   
 3 2013-10-07 AR        bae        5       1 South        23641 Arkansas  
 4 2013-10-07 AR        boi        1       1 South        23641 Arkansas  
 5 2013-10-07 AR        bruhhh     1       1 South        23641 Arkansas  
 6 2013-10-07 AZ        anime      1       1 West        198852 Arizona   
 7 2013-10-07 AZ        bae       22       1 West        198852 Arizona   
 8 2013-10-07 AZ        boi        5       1 West        198852 Arizona   
 9 2013-10-07 CA        anime     11       1 West       1209652 California
10 2013-10-07 CA        bae      124       1 West       1209652 California
# ... with 55,178 more rows
…
will all work.  There are also `mdy()` and `ymd()` functions if you prefer to specify the parts of the date in a different order.
(If these commands don't work, check you have loaded the `lubridate` package with `library(lubridate)`)

So, to only keep tweets on or after 1 Jan 2014 we can use:

~~~
twitterData %>% 
  filter(date >= dmy("1 Jan 2014"))
~~~
{: .language-r}



~~~
# A tibble: 74,730 x 8
   date       stateCode word   cases dataDay Region totalTokens State   
   <date>     <chr>     <chr>  <int>   <int> <chr>        <dbl> <chr>   
 1 2014-01-01 AL        anime      1      87 South       315249 Alabama 
 2 2014-01-01 AL        bae      127      87 South       315249 Alabama 
 3 2014-01-01 AL        boi        5      87 South       315249 Alabama 
 4 2014-01-01 AL        bruhhh     2      87 South       315249 Alabama 
 5 2014-01-01 AL        fleek      0      87 South       315249 Alabama 
 6 2014-01-01 AR        anime      0      87 South        61134 Arkansas
 7 2014-01-01 AR        bae       22      87 South        61134 Arkansas
 8 2014-01-01 AR        boi        2      87 South        61134 Arkansas
 9 2014-01-01 AR        bruhhh     0      87 South        61134 Arkansas
10 2014-01-01 AR        fleek      0      87 South        61134 Arkansas
# ... with 74,720 more rows
…
Let's rewrite the select command example using the pipe operator:


~~~
dateWordStateCode<- twitterData %>% 
  select(date, word, stateCode)
print(dateWordStateCode)
~~~
{: .language-r}



~~~
# A tibble: 94,940 x 3
   date       word   stateCode
   <date>     <chr>  <chr>    
 1 2013-10-07 anime  AL       
 2 2013-10-07 bae    AL       
 3 2013-10-07 boi    AL       
 4 2013-10-07 bruhhh AL       
 5 2013-10-07 fleek  AL       
 6 2013-10-07 anime  AR       
 7 2013-10-07 bae    AR       
 8 2013-10-07 boi    AR       
 9 2013-10-07 bruhhh AR       
10 2013-10-07 fleek  AR       
# ... with 94,930 more rows
…
~~~
NorthEastData <- twitterData %>% 
  filter(Region == "Northeast") %>% 
  select(date, word, stateCode)
print(NorthEastData)
~~~
{: .language-r}



~~~
# A tibble: 16,160 x 3
   date       word   stateCode
   <date>     <chr>  <chr>    
 1 2013-10-07 anime  CT       
 2 2013-10-07 bae    CT       
 3 2013-10-07 boi    CT       
 4 2013-10-07 bruhhh CT       
 5 2013-10-07 fleek  CT       
 6 2013-10-07 anime  MA       
 7 2013-10-07 bae    MA       
 8 2013-10-07 boi    MA       
 9 2013-10-07 bruhhh MA       
10 2013-10-07 fleek  MA       
# ... with 16,150 more rows
…
Note that the order of these operations matters; if we reversed the order of the `select()` and `filter()` functions, the `stateCode` variable wouldn't exist in the data-set when we came to apply the filter.  

What about if we wanted to match more than one item?  To do this we use the `%in%` operator:


~~~
twitterData %>% 
  filter(stateCode %in% c("WY", "UT", "CO", "AZ", "NM"))
~~~
{: .language-r}



~~~
# A tibble: 10,100 x 8
   date       stateCode word   cases dataDay Region totalTokens State   
   <date>     <chr>     <chr>  <int>   <int> <chr>        <dbl> <chr>   
 1 2013-10-07 AZ        anime      1       1 West        198852 Arizona 
 2 2013-10-07 AZ        bae       22       1 West        198852 Arizona 
 3 2013-10-07 AZ        boi        5       1 West        198852 Arizona 
 4 2013-10-07 AZ        bruhhh     0       1 West        198852 Arizona 
 5 2013-10-07 AZ        fleek      0       1 West        198852 Arizona 
 6 2013-10-07 CO        anime      0       1 West        106166 Colorado
 7 2013-10-07 CO        bae        4       1 West        106166 Colorado
 8 2013-10-07 CO        boi        1       1 West        106166 Colorado
 9 2013-10-07 CO        bruhhh     0       1 West        106166 Colorado
10 2013-10-07 CO        fleek      0       1 West        106166 Colorado
# ... with 10,090 more rows
…
The `arrange()` function will sort a tibble by one or more of the variables in it:


~~~
twitterData %>% 
  filter(word == "anime") %>%
  arrange(cases)
~~~
{: .language-r}



~~~
# A tibble: 18,988 x 8
   date       stateCode word  cases dataDay Region   totalTokens State    
   <date>     <chr>     <chr> <int>   <int> <chr>          <dbl> <chr>    
 1 2013-10-07 AL        anime     0       1 South         184649 Alabama  
 2 2013-10-07 AR        anime     0       1 South          23641 Arkansas 
 3 2013-10-07 CO        anime     0       1 West          106166 Colorado 
 4 2013-10-07 DE        anime     0       1 South          12039 Delaware 
 5 2013-10-07 IA        anime     0       1 Midwest        73405 Iowa     
 6 2013-10-07 ID        anime     0       1 West           23522 Idaho    
 7 2013-10-07 IN        anime     0       1 Midwest       149274 Indiana  
 8 2013-10-07 KY        anime     0       1 South          45995 Kentucky 
 9 2013-10-07 LA        anime     0       1 South         180652 Louisiana
10 2013-10-07 MA        anime     0       1 Northea…       61205 Massachu…
# ... with 18,978 more rows
…
~~~
twitterData %>% 
  filter(word == "anime") %>%
  arrange(desc(cases))
~~~
{: .language-r}



~~~
# A tibble: 18,988 x 8
   date       stateCode word  cases dataDay Region totalTokens State     
   <date>     <chr>     <chr> <int>   <int> <chr>        <dbl> <chr>     
 1 2014-07-05 CA        anime   367     272 West       2865511 California
 2 2014-07-03 CA        anime   293     270 West       3298513 California
 3 2014-07-04 CA        anime   286     271 West       3185266 California
 4 2014-07-06 CA        anime   260     273 West       3077657 California
 5 2014-07-16 CA        anime   180     283 West       3524572 California
 6 2014-07-07 CA        anime   145     274 West       3454158 California
 7 2014-07-09 CA        anime   144     276 West       3628779 California
 8 2014-07-02 CA        anime   117     269 West       3353831 California
 9 2014-07-08 CA        anime   115     275 West       3836043 California
10 2014-07-17 CA        anime   103     284 West       3478334 California
# ... with 18,978 more rows
…
The `mutate()` function lets us add new variables to our tibble.  It will often be the case that these are variables we _derive_ from existing variables in the data-frame. 

As an example, we can calculate the proportion of all tokens that were each of the words we are studying:


~~~
twitterData %>% 
  mutate(wordProp = cases / totalTokens)
~~~
{: .language-r}



~~~
# A tibble: 94,940 x 9
   date       stateCode word  cases dataDay Region totalTokens State
   <date>     <chr>     <chr> <int>   <int> <chr>        <dbl> <chr>
 1 2013-10-07 AL        anime     0       1 South       184649 Alab…
 2 2013-10-07 AL        bae      32       1 South       184649 Alab…
 3 2013-10-07 AL        boi       9       1 South       184649 Alab…
 4 2013-10-07 AL        bruh…     0       1 South       184649 Alab…
 5 2013-10-07 AL        fleek     0       1 South       184649 Alab…
 6 2013-10-07 AR        anime     0       1 South        23641 Arka…
 7 2013-10-07 AR        bae       5       1 South        23641 Arka…
 8 2013-10-07 AR        boi       1       1 South        23641 Arka…
 9 2013-10-07 AR        bruh…     1       1 South        23641 Arka…
10 2013-10-07 AR        fleek     0       1 South        23641 Arka…
# ... with 94,930 more rows, and 1 more variable: wordProp <dbl>
…
> > 
> > The first thing to do is to get the rows of data we want.  We use the `filter()` function for this:
> > 
> > 
> > ~~~
> > twitterData %>% 
> >   filter(stateCode == "NY") %>% 
> >   filter(word == "anime")
> > ~~~
> > {: .language-r}
> > 
> > 
> > 
> > ~~~
> > # A tibble: 404 x 8
> >    date       stateCode word  cases dataDay Region    totalTokens State   
> >    <date>     <chr>     <chr> <int>   <int> <chr>           <dbl> <chr>   
> >  1 2013-10-07 NY        anime     1       1 Northeast      265028 New York
> >  2 2013-10-08 NY        anime     2       2 Northeast      334360 New York
> >  3 2013-10-09 NY        anime     0       3 Northeast      333082 New York
> >  4 2013-10-10 NY        anime     4       4 Northeast      337997 New York
> >  5 2013-10-11 NY        anime     1       5 Northeast      300758 New York
> >  6 2013-10-12 NY        anime     0       6 Northeast      297587 New York
> >  7 2013-10-13 NY        anime     4       7 Northeast      346526 New York
> >  8 2013-10-14 NY        anime     0       8 Northeast      349689 New York
> >  9 2013-10-15 NY        anime     1       9 Northeast      342450 New York
> > 10 2013-10-16 NY        anime     4      10 Northeast      355594 New York
> > # ... with 394 more rows
…
> > We can extend the pipeline with a `select()` to get the columns we need for the rest of the challenge:
> > 
> > 
> > ~~~
> > twitterData %>% 
> >   filter(stateCode == "NY") %>% 
> >   filter(word == "anime") %>% 
> >   select(date, cases)
> > ~~~
> > {: .language-r}
> > 
> > 
> > 
> > ~~~
> > # A tibble: 404 x 2
> >    date       cases
> >    <date>     <int>
> >  1 2013-10-07     1
> >  2 2013-10-08     2
> >  3 2013-10-09     0
> >  4 2013-10-10     4
> >  5 2013-10-11     1
> >  6 2013-10-12     0
> >  7 2013-10-13     4
> >  8 2013-10-14     0
> >  9 2013-10-15     1
> > 10 2013-10-16     4
> > # ... with 394 more rows
…
> > 
> > 
> > ~~~
> > twitterData %>% 
> >   filter(stateCode == "NY") %>% 
> >   filter(word == "anime") %>% 
> >   select(date, cases) %>% 
> >   arrange(date)
> > ~~~
> > {: .language-r}
> > 
> > 
> > 
> > ~~~
> > # A tibble: 404 x 2
> >    date       cases
> >    <date>     <int>
> >  1 2013-10-07     1
> >  2 2013-10-08     2
> >  3 2013-10-09     0
> >  4 2013-10-10     4
> >  5 2013-10-11     1
> >  6 2013-10-12     0
> >  7 2013-10-13     4
> >  8 2013-10-14     0
> >  9 2013-10-15     1
> > 10 2013-10-16     4
> > # ... with 394 more rows
…
> > 
> > ~~~
> > twitterData %>% 
> >   filter(stateCode == "NY") %>% 
> >   filter(word == "anime") %>% 
> >   select(date, cases) %>% 
> >   arrange(date) %>% 
> >   mutate(cumulativeUse = cumsum(cases))
> > ~~~
> > {: .language-r}
> > 
> > 
> > 
> > ~~~
> > # A tibble: 404 x 3
> >    date       cases cumulativeUse
> >    <date>     <int>         <int>
> >  1 2013-10-07     1             1
> >  2 2013-10-08     2             3
> >  3 2013-10-09     0             3
> >  4 2013-10-10     4             7
> >  5 2013-10-11     1             8
> >  6 2013-10-12     0             8
> >  7 2013-10-13     4            12
> >  8 2013-10-14     0            12
> >  9 2013-10-15     1            13
> > 10 2013-10-16     4            17
> > # ... with 394 more rows
…
> > ## Solution
> > 
> > ~~~
> > twitterData %>% 
> >   filter(date >= dmy("1 Jan 2014")) %>% 
> >   filter(date < dmy("1 Feb 2014")) %>% 
> >   group_by(date, word) %>% 
> >   summarise(totalUse = sum(cases))
> > ~~~
> > {: .language-r}
> > 
> > 
> > 
> > ~~~
> > # A tibble: 155 x 3
> > # Groups:   date [?]
> >    date       word   totalUse
> >    <date>     <chr>     <int>
> >  1 2014-01-01 anime       104
> >  2 2014-01-01 bae        4288
> >  3 2014-01-01 boi         346
> >  4 2014-01-01 bruhhh       90
> >  5 2014-01-01 fleek         0
> >  6 2014-01-02 anime       124
> >  7 2014-01-02 bae        4161
> >  8 2014-01-02 boi         379
> >  9 2014-01-02 bruhhh       84
> > 10 2014-01-02 fleek         0
> > # ... with 145 more rows
…
For example, if we wanted to take the log of all observations where the word was mentioned at least once, and use `NA` otherwise, we could use:


~~~
twitterData %>% 
  select(date, stateCode, word, cases) %>% 
  mutate(logcases = ifelse(cases > 0, log(cases), NA))
~~~
{: .language-r}



~~~
# A tibble: 94,940 x 5
   date       stateCode word   cases logcases
   <date>     <chr>     <chr>  <int>    <dbl>
 1 2013-10-07 AL        anime      0    NA   
 2 2013-10-07 AL        bae       32     3.47
 3 2013-10-07 AL        boi        9     2.20
 4 2013-10-07 AL        bruhhh     0    NA   
 5 2013-10-07 AL        fleek      0    NA   
 6 2013-10-07 AR        anime      0    NA   
 7 2013-10-07 AR        bae        5     1.61
 8 2013-10-07 AR        boi        1     0   
 9 2013-10-07 AR        bruhhh     1     0   
10 2013-10-07 AR        fleek      0    NA   
# ... with 94,930 more rows
…
